[+] Containers:
 |- [+] Container: /Game/TopDown/Maps/TopDownMap
 |   |- [+] ActorDescs:
 |   |   |- Guid:147C8D134B12D635012D5F8C57D2C96F BaseClass: NativeClass:/Script/Engine.PostProcessVolume Name:PostProcessVolume_1 Label:PostProcessVolume SpatiallyLoaded:0 Bounds:IsValid=true, Min=(X=0.000 Y=0.000 Z=400.000), Max=(X=200.000 Y=200.000 Z=600.000) RuntimeGrid:None EditorOnly:0 RuntimeOnly:0 HLODRelevant:0 FolderPath:Lighting FolderGuid:4C9334684BA61B42C769F799D2576455
 |   |   |- Guid:1742DF43475F097453197AA79C7473D9 BaseClass: NativeClass:/Script/Engine.SkyLight Name:SkyLight_1 Label:SkyLight SpatiallyLoaded:0 Bounds:IsValid=true, Min=(X=0.000 Y=0.000 Z=690.000), Max=(X=0.000 Y=0.000 Z=690.000) RuntimeGrid:None EditorOnly:0 RuntimeOnly:0 HLODRelevant:0 FolderPath:Lighting FolderGuid:4C9334684BA61B42C769F799D2576455
 |   |   |- Guid:19F77B254E508844CD69E1A186C4B969 BaseClass:/Game/TopDown/AutocookBaseLogic/PlayerBag.PlayerBag_C NativeClass:/Script/Engine.Actor Name:PlayerBag_C_UAID_2CF05D3B741EDFB901_1277758767 Label:PlayerBag SpatiallyLoaded:1 Bounds:IsValid=true, Min=(X=650.000 Y=1920.000 Z=480.000), Max=(X=650.000 Y=1920.000 Z=480.000) RuntimeGrid:None EditorOnly:0 RuntimeOnly:0 HLODRelevant:0 FolderPath:BasicLogic FolderGuid:2E6430964C8AC2D999E011831BDAD4B3
 |   |   |- Guid:1FDD73EE4C00B6D04D26938B691CA3F0 BaseClass:/Game/TopDown/AutocookBaseLogic/ItemOperatorStation.ItemOperatorStation_C NativeClass:/Script/Engine.Actor Name:ItemOperatorStation_C_UAID_2CF05D3B741EB0B701_1135430384 Label:ItemOperatorStationApple SpatiallyLoaded:1 Bounds:IsValid=true, Min=(X=410.000 Y=2190.000 Z=60.000), Max=(X=510.000 Y=2290.000 Z=60.000) RuntimeGrid:None EditorOnly:0 RuntimeOnly:0 HLODRelevant:0 FolderPath:ItemOperatorStation FolderGuid:45BCE96442C3ECCAC03ED789C98D4C9B
 |   |   |- Guid:1FEC8FAC495CEF0CE32492ADCBB96BAE BaseClass: NativeClass:/Script/AIModule.NavLinkProxy Name:NavLinkProxy_3 Label:NavLinkProxy3 SpatiallyLoaded:1 Bounds:IsValid=true, Min=(X=2240.000 Y=1030.000 Z=90.000), Max=(X=2240.000 Y=1030.000 Z=90.000) RuntimeGrid:None EditorOnly:0 RuntimeOnly:0 HLODRelevant:0 FolderPath:Navigation FolderGuid:AE45D61F453CC144CF8289862C276E89
 |   |   |- Guid:2169CB5C470E0E674279BA96829753DD BaseClass: NativeClass:/Script/Engine.StaticMeshActor Name:StaticMeshActor_17 Label:SM_Cube SpatiallyLoaded:1 Bounds:IsValid=true, Min=(X=0.000 Y=0.000 Z=-50.000), Max=(X=3000.000 Y=3500.000 Z=50.000) RuntimeGrid:None EditorOnly:0 RuntimeOnly:0 HLODRelevant:1 FolderPath:Playground FolderGuid:9FE5E8B349AF71F05F2688921F3F2AC5
 |   |   |- Guid:2DF0D95440BE0EDA81652F860DC7268E BaseClass: NativeClass:/Script/Engine.WorldDataLayers Name:WorldDataLayers Label:WorldDataLayers SpatiallyLoaded:0 Bounds:IsValid=true, Min=(X=0.000 Y=0.000 Z=0.000), Max=(X=0.000 Y=0.000 Z=0.000) RuntimeGrid:None EditorOnly:0 RuntimeOnly:0 HLODRelevant:0
 |   |   |- Guid:399426454DA0259D2A7BC4B6C3195459 BaseClass: NativeClass:/Script/Engine.StaticMeshActor Name:StaticMeshActor_UAID_2CF05D3B741E99B401_1546634178 Label:CardChoppingBoard SpatiallyLoaded:1 Bounds:IsValid=true, Min=(X=290.000 Y=910.000 Z=140.000), Max=(X=390.000 Y=1010.000 Z=140.000) RuntimeGrid:None EditorOnly:0 RuntimeOnly:0 HLODRelevant:1 FolderPath:ItemCards FolderGuid:88C4BAD84E7ED7FA5CDC05BC7E201FAA
 |   |   |- Guid:3D6CE1BA4A1CA78758C41F9C9B2EBB35 BaseClass: NativeClass:/Script/Engine.StaticMeshActor Name:StaticMeshActor_UAID_2CF05D3B741E99B401_1438423177 Label:CardPlate SpatiallyLoaded:1 Bounds:IsValid=true, Min=(X=280.000 Y=1180.000 Z=150.000), Max=(X=380.000 Y=1280.000 Z=150.000) RuntimeGrid:None EditorOnly:0 RuntimeOnly:0 HLODRelevant:1 FolderPath:ItemCards FolderGuid:88C4BAD84E7ED7FA5CDC05BC7E201FAA
 |   |   |- Guid:46ED9CEC43867A828173909D11A408E6 BaseClass:/Game/TopDown/AutocookBaseLogic/ItemOperatorStation.ItemOperatorStation_C NativeClass:/Script/Engine.Actor Name:ItemOperatorStation_C_UAID_2CF05D3B741EAFB701_2143197207 Label:ItemOperatorStationCucumb SpatiallyLoaded:1 Bounds:IsValid=true, Min=(X=420.000 Y=2560.000 Z=60.000), Max=(X=520.000 Y=2660.000 Z=60.000) RuntimeGrid:None EditorOnly:0 RuntimeOnly:0 HLODRelevant:0 FolderPath:ItemOperatorStation FolderGuid:45BCE96442C3ECCAC03ED789C98D4C9B
 |   |   |- Guid:4E4789594AE1407CCAF817BCA662672C BaseClass:/Game/TopDown/AutocookBaseLogic/ItemOperatorStation.ItemOperatorStation_C NativeClass:/Script/Engine.Actor Name:ItemOperatorStation_C_UAID_2CF05D3B741EB0B701_1221272385 Label:ItemOperatorStationBanana SpatiallyLoaded:1 Bounds:IsValid=true, Min=(X=420.000 Y=1780.000 Z=60.000), Max=(X=520.000 Y=1880.000 Z=60.000) RuntimeGrid:None EditorOnly:0 RuntimeOnly:0 HLODRelevant:0 FolderPath:ItemOperatorStation FolderGuid:45BCE96442C3ECCAC03ED789C98D4C9B
 |   |   |- Guid:6252C7D64ACF162A73EE65B11FE214D1 BaseClass: NativeClass:/Script/Engine.SkyAtmosphere Name:SkyAtmosphere_1 Label:SkyAtmosphere SpatiallyLoaded:0 Bounds:IsValid=true, Min=(X=0.000 Y=0.000 Z=1020.000), Max=(X=0.000 Y=0.000 Z=1020.000) RuntimeGrid:None EditorOnly:0 RuntimeOnly:0 HLODRelevant:0 FolderPath:Lighting FolderGuid:4C9334684BA61B42C769F799D2576455
 |   |   |- Guid:6697E0414DFD1EAEC81B11AAED0B918B BaseClass:/Game/TopDown/AutocookBaseLogic/OrderManager.OrderManager_C NativeClass:/Script/Engine.Actor Name:OrderManager_C_UAID_2CF05D3B741EDFB901_1301145768 Label:OrderManager SpatiallyLoaded:1 Bounds:IsValid=true, Min=(X=930.000 Y=2100.000 Z=210.000), Max=(X=930.000 Y=2100.000 Z=210.000) RuntimeGrid:None EditorOnly:0 RuntimeOnly:0 HLODRelevant:0 FolderPath:BasicLogic FolderGuid:2E6430964C8AC2D999E011831BDAD4B3
 |   |   |- Guid:66BCBF874D2A22ADC6523B95EE812CA3 BaseClass: NativeClass:/Script/Engine.StaticMeshActor Name:StaticMeshActor_UAID_A4AE111137DC5CFB00_1660657071 Label:SM_SkySphere SpatiallyLoaded:0 Bounds:IsValid=true, Min=(X=-1638400.000 Y=-1638400.000 Z=-1638400.000), Max=(X=1638400.000 Y=1638400.000 Z=1638400.000) RuntimeGrid:None EditorOnly:0 RuntimeOnly:0 HLODRelevant:1 FolderPath:Lighting FolderGuid:4C9334684BA61B42C769F799D2576455
 |   |   |- Guid:7745151C40D50341DEDA64A57645790F BaseClass: NativeClass:/Script/Engine.StaticMeshActor Name:StaticMeshActor_UAID_2CF05D3B741E8DB401_1885194056 Label:Cube2 SpatiallyLoaded:1 Bounds:IsValid=true, Min=(X=2380.000 Y=700.000 Z=0.000), Max=(X=2480.000 Y=2900.000 Z=100.000) RuntimeGrid:None EditorOnly:0 RuntimeOnly:0 HLODRelevant:1 FolderPath:Playground FolderGuid:9FE5E8B349AF71F05F2688921F3F2AC5
 |   |   |- Guid:77F893B3468595EE782136AD620D7EF4 BaseClass: NativeClass:/Script/Engine.VolumetricCloud Name:VolumetricCloud_0 Label:VolumetricCloud SpatiallyLoaded:0 Bounds:IsValid=true, Min=(X=0.000 Y=0.000 Z=820.000), Max=(X=0.000 Y=0.000 Z=820.000) RuntimeGrid:None EditorOnly:0 RuntimeOnly:0 HLODRelevant:0 FolderPath:Lighting FolderGuid:4C9334684BA61B42C769F799D2576455
 |   |   |- Guid:80D69EB6461DE36BE691748468B42200 BaseClass:/Game/TopDown/AutocookBaseLogic/ItemOperatorStation.ItemOperatorStation_C NativeClass:/Script/Engine.Actor Name:ItemOperatorStation_C_UAID_2CF05D3B741EB0B701_1321914387 Label:ItemOperatorStationChoppingBoard SpatiallyLoaded:1 Bounds:IsValid=true, Min=(X=410.000 Y=910.000 Z=60.000), Max=(X=510.000 Y=1010.000 Z=60.000) RuntimeGrid:None EditorOnly:0 RuntimeOnly:0 HLODRelevant:0 FolderPath:ItemOperatorStation FolderGuid:45BCE96442C3ECCAC03ED789C98D4C9B
 |   |   |- Guid:827B1D464CA170BA983BE8AAEF243DDF BaseClass: NativeClass:/Script/Engine.StaticMeshActor Name:StaticMeshActor_UAID_2CF05D3B741E8EB401_1919208236 Label:Cube6 SpatiallyLoaded:1 Bounds:IsValid=true, Min=(X=1760.000 Y=1910.000 Z=0.000), Max=(X=2460.000 Y=2010.000 Z=100.000) RuntimeGrid:None EditorOnly:0 RuntimeOnly:0 HLODRelevant:1 FolderPath:Playground FolderGuid:9FE5E8B349AF71F05F2688921F3F2AC5
 |   |   |- Guid:8731F4F84CDF0D0834BB208646346EB6 BaseClass:/Game/TopDown/AutocookBaseLogic/TestOrder.TestOrder_C NativeClass:/Script/Engine.Actor Name:TestOrder_C_UAID_2CF05D3B741EBEB501_1458677735 Label:TestOrder SpatiallyLoaded:1 Bounds:IsValid=true, Min=(X=500.000 Y=2040.000 Z=360.000), Max=(X=500.000 Y=2040.000 Z=360.000) RuntimeGrid:None EditorOnly:0 RuntimeOnly:0 HLODRelevant:0 FolderPath:Test FolderGuid:EC11BE674E5A868E3BCB98B2CC979488
 |   |   |- Guid:88FD62234FE06AEE6BED5282950D300A BaseClass: NativeClass:/Script/Engine.StaticMeshActor Name:StaticMeshActor_UAID_2CF05D3B741E99B401_1731190179 Label:CardSaladDresssing SpatiallyLoaded:1 Bounds:IsValid=true, Min=(X=540.000 Y=620.000 Z=140.000), Max=(X=640.000 Y=720.000 Z=140.000) RuntimeGrid:None EditorOnly:0 RuntimeOnly:0 HLODRelevant:1 FolderPath:ItemCards FolderGuid:88C4BAD84E7ED7FA5CDC05BC7E201FAA
 |   |   |- Guid:8AEC5DFE40EA2BEF14A3DC8291417A47 BaseClass:/Game/TopDown/AutocookBaseLogic/ItemOperatorStation.ItemOperatorStation_C NativeClass:/Script/Engine.Actor Name:ItemOperatorStation_C_UAID_2CF05D3B741EB0B701_1346003388 Label:ItemOperatorStationSalad SpatiallyLoaded:1 Bounds:IsValid=true, Min=(X=560.000 Y=720.000 Z=60.000), Max=(X=660.000 Y=820.000 Z=60.000) RuntimeGrid:None EditorOnly:0 RuntimeOnly:0 HLODRelevant:0 FolderPath:ItemOperatorStation FolderGuid:45BCE96442C3ECCAC03ED789C98D4C9B
 |   |   |- Guid:95B2B3F04FD5D3E598B1DE9AC4B7AB60 BaseClass: NativeClass:/Script/Engine.StaticMeshActor Name:StaticMeshActor_UAID_2CF05D3B741E99B401_1382352176 Label:CardCucumber SpatiallyLoaded:1 Bounds:IsValid=true, Min=(X=300.000 Y=2550.000 Z=110.000), Max=(X=400.000 Y=2650.000 Z=110.000) RuntimeGrid:None EditorOnly:0 RuntimeOnly:0 HLODRelevant:1 FolderPath:ItemCards FolderGuid:88C4BAD84E7ED7FA5CDC05BC7E201FAA
 |   |   |- Guid:A05C0451402C0B7E56BE2CB8CCB10135 BaseClass: NativeClass:/Script/Engine.StaticMeshActor Name:StaticMeshActor_UAID_2CF05D3B741E8DB401_2143198058 Label:Cube4 SpatiallyLoaded:1 Bounds:IsValid=true, Min=(X=290.000 Y=2890.000 Z=0.000), Max=(X=2490.000 Y=2990.000 Z=100.000) RuntimeGrid:None EditorOnly:0 RuntimeOnly:0 HLODRelevant:1 FolderPath:Playground FolderGuid:9FE5E8B349AF71F05F2688921F3F2AC5
 |   |   |- Guid:A26678BF4B6734F3897FF0A06501BB59 BaseClass: NativeClass:/Script/Engine.StaticMeshActor Name:StaticMeshActor_UAID_2CF05D3B741E8DB401_1997941057 Label:Cube3 SpatiallyLoaded:1 Bounds:IsValid=true, Min=(X=290.000 Y=610.000 Z=0.000), Max=(X=2490.000 Y=710.000 Z=100.000) RuntimeGrid:None EditorOnly:0 RuntimeOnly:0 HLODRelevant:1 FolderPath:Playground FolderGuid:9FE5E8B349AF71F05F2688921F3F2AC5
 |   |   |- Guid:AAB084114CBFE4E73DB978AFC29606CF BaseClass: NativeClass:/Script/Engine.StaticMeshActor Name:StaticMeshActor_UAID_2CF05D3B741E8EB401_2103935237 Label:CardBanana SpatiallyLoaded:1 Bounds:IsValid=true, Min=(X=300.000 Y=1780.000 Z=110.000), Max=(X=400.000 Y=1880.000 Z=110.000) RuntimeGrid:None EditorOnly:0 RuntimeOnly:0 HLODRelevant:1 FolderPath:ItemCards FolderGuid:88C4BAD84E7ED7FA5CDC05BC7E201FAA
 |   |   |- Guid:AECEEEE741E6DE68F6843FA49564A956 BaseClass: NativeClass:/Script/Engine.DirectionalLight Name:DirectionalLight_1 Label:DirectionalLight SpatiallyLoaded:0 Bounds:IsValid=true, Min=(X=-1048576.000 Y=-1048576.000 Z=-1048576.000), Max=(X=1048576.000 Y=1048576.000 Z=1048576.000) RuntimeGrid:None EditorOnly:0 RuntimeOnly:0 HLODRelevant:0 FolderPath:Lighting FolderGuid:4C9334684BA61B42C769F799D2576455
 |   |   |- Guid:AF95419842580A2475AD7486F56EE1E4 BaseClass:/Game/TopDown/Test/BP_Teacher.BP_Teacher_C NativeClass:/Script/Engine.Actor Name:BP_Teacher_C_UAID_2CF05D3B741ECAB401_1738999791 Label:BP_Teacher SpatiallyLoaded:1 Bounds:IsValid=true, Min=(X=510.000 Y=1590.000 Z=320.000), Max=(X=510.000 Y=1590.000 Z=320.000) RuntimeGrid:None EditorOnly:0 RuntimeOnly:0 HLODRelevant:0 FolderPath:Test FolderGuid:EC11BE674E5A868E3BCB98B2CC979488
 |   |   |- Guid:B376AF284C462FB0D48CCEA096E5732C BaseClass: NativeClass:/Script/Engine.StaticMeshActor Name:StaticMeshActor_UAID_2CF05D3B741E8EB401_1580388235 Label:Cube5 SpatiallyLoaded:1 Bounds:IsValid=true, Min=(X=387.500 Y=1340.000 Z=0.000), Max=(X=1012.500 Y=1440.000 Z=100.000) RuntimeGrid:None EditorOnly:0 RuntimeOnly:0 HLODRelevant:1 FolderPath:Playground FolderGuid:9FE5E8B349AF71F05F2688921F3F2AC5
 |   |   |- Guid:C8B2FDEB423FDC0AF86D549D090D7BE0 BaseClass: NativeClass:/Script/Engine.StaticMeshActor Name:StaticMeshActor_UAID_2CF05D3B741E8DB401_1618225055 Label:Cube SpatiallyLoaded:1 Bounds:IsValid=true, Min=(X=300.000 Y=700.000 Z=0.000), Max=(X=400.000 Y=2900.000 Z=100.000) RuntimeGrid:None EditorOnly:0 RuntimeOnly:0 HLODRelevant:1 FolderPath:Playground FolderGuid:9FE5E8B349AF71F05F2688921F3F2AC5
 |   |   |- Guid:CCDD89584E0A9025F52AEDA51D60CA54 BaseClass: NativeClass:/Script/NavigationSystem.NavMeshBoundsVolume Name:NavMeshBoundsVolume_1 Label:NavMeshBoundsVolume SpatiallyLoaded:0 Bounds:IsValid=true, Min=(X=-100.000 Y=-100.000 Z=-110.000), Max=(X=3100.000 Y=3600.000 Z=390.000) RuntimeGrid:None EditorOnly:0 RuntimeOnly:0 HLODRelevant:0 FolderPath:Navigation FolderGuid:AE45D61F453CC144CF8289862C276E89
 |   |   |- Guid:D24D61B944EF71BE7BC469B7EB239299 BaseClass: NativeClass:/Script/Engine.ExponentialHeightFog Name:ExponentialHeightFog_1 Label:ExponentialHeightFog SpatiallyLoaded:0 Bounds:IsValid=true, Min=(X=-5600.000 Y=-50.000 Z=-6850.000), Max=(X=-5600.000 Y=-50.000 Z=-6850.000) RuntimeGrid:None EditorOnly:0 RuntimeOnly:0 HLODRelevant:0 FolderPath:Lighting FolderGuid:4C9334684BA61B42C769F799D2576455
 |   |   |- Guid:D65857CA43F1EF280FC54091DA61C777 BaseClass:/Game/TopDown/AutocookBaseLogic/ItemOperatorStation.ItemOperatorStation_C NativeClass:/Script/Engine.Actor Name:ItemOperatorStation_C_UAID_2CF05D3B741EB0B701_1275761386 Label:ItemOperatorStationPlate SpatiallyLoaded:1 Bounds:IsValid=true, Min=(X=420.000 Y=1170.000 Z=60.000), Max=(X=520.000 Y=1270.000 Z=60.000) RuntimeGrid:None EditorOnly:0 RuntimeOnly:0 HLODRelevant:0 FolderPath:ItemOperatorStation FolderGuid:45BCE96442C3ECCAC03ED789C98D4C9B
 |   |   |- Guid:E80F33394DBA91E66D8E1EB4E2D982C1 BaseClass: NativeClass:/Script/Engine.StaticMeshActor Name:StaticMeshActor_UAID_2CF05D3B741E98B401_1952033999 Label:CardApple SpatiallyLoaded:1 Bounds:IsValid=true, Min=(X=290.000 Y=2200.000 Z=120.000), Max=(X=390.000 Y=2300.000 Z=120.000) RuntimeGrid:None EditorOnly:0 RuntimeOnly:0 HLODRelevant:1 FolderPath:ItemCards FolderGuid:88C4BAD84E7ED7FA5CDC05BC7E201FAA
 |   |   |- Guid:F33CC5014C49925B3A9D52A063AF483F BaseClass: NativeClass:/Script/Engine.PlayerStart Name:PlayerStart_0 Label:PlayerStart SpatiallyLoaded:0 Bounds:IsValid=true, Min=(X=960.000 Y=1770.000 Z=0.013), Max=(X=1040.000 Y=1850.000 Z=184.013) RuntimeGrid:None EditorOnly:0 RuntimeOnly:0 HLODRelevant:0
 |   |- [+] Clusters:
 |   |   |- [+] [  0]
 |   |   |   |- Guid:827B1D464CA170BA983BE8AAEF243DDF BaseClass: NativeClass:/Script/Engine.StaticMeshActor Name:StaticMeshActor_UAID_2CF05D3B741E8EB401_1919208236 Label:Cube6 SpatiallyLoaded:1 Bounds:IsValid=true, Min=(X=1760.000 Y=1910.000 Z=0.000), Max=(X=2460.000 Y=2010.000 Z=100.000) RuntimeGrid:None EditorOnly:0 RuntimeOnly:0 HLODRelevant:1 FolderPath:Playground FolderGuid:9FE5E8B349AF71F05F2688921F3F2AC5
 |   |   |- [+] [  1]
 |   |   |   |- Guid:CCDD89584E0A9025F52AEDA51D60CA54 BaseClass: NativeClass:/Script/NavigationSystem.NavMeshBoundsVolume Name:NavMeshBoundsVolume_1 Label:NavMeshBoundsVolume SpatiallyLoaded:0 Bounds:IsValid=true, Min=(X=-100.000 Y=-100.000 Z=-110.000), Max=(X=3100.000 Y=3600.000 Z=390.000) RuntimeGrid:None EditorOnly:0 RuntimeOnly:0 HLODRelevant:0 FolderPath:Navigation FolderGuid:AE45D61F453CC144CF8289862C276E89
 |   |   |- [+] [  2]
 |   |   |   |- Guid:D65857CA43F1EF280FC54091DA61C777 BaseClass:/Game/TopDown/AutocookBaseLogic/ItemOperatorStation.ItemOperatorStation_C NativeClass:/Script/Engine.Actor Name:ItemOperatorStation_C_UAID_2CF05D3B741EB0B701_1275761386 Label:ItemOperatorStationPlate SpatiallyLoaded:1 Bounds:IsValid=true, Min=(X=420.000 Y=1170.000 Z=60.000), Max=(X=520.000 Y=1270.000 Z=60.000) RuntimeGrid:None EditorOnly:0 RuntimeOnly:0 HLODRelevant:0 FolderPath:ItemOperatorStation FolderGuid:45BCE96442C3ECCAC03ED789C98D4C9B
 |   |   |- [+] [  3]
 |   |   |   |- Guid:95B2B3F04FD5D3E598B1DE9AC4B7AB60 BaseClass: NativeClass:/Script/Engine.StaticMeshActor Name:StaticMeshActor_UAID_2CF05D3B741E99B401_1382352176 Label:CardCucumber SpatiallyLoaded:1 Bounds:IsValid=true, Min=(X=300.000 Y=2550.000 Z=110.000), Max=(X=400.000 Y=2650.000 Z=110.000) RuntimeGrid:None EditorOnly:0 RuntimeOnly:0 HLODRelevant:1 FolderPath:ItemCards FolderGuid:88C4BAD84E7ED7FA5CDC05BC7E201FAA
 |   |   |- [+] [  4]
 |   |   |   |- Guid:A26678BF4B6734F3897FF0A06501BB59 BaseClass: NativeClass:/Script/Engine.StaticMeshActor Name:StaticMeshActor_UAID_2CF05D3B741E8DB401_1997941057 Label:Cube3 SpatiallyLoaded:1 Bounds:IsValid=true, Min=(X=290.000 Y=610.000 Z=0.000), Max=(X=2490.000 Y=710.000 Z=100.000) RuntimeGrid:None EditorOnly:0 RuntimeOnly:0 HLODRelevant:1 FolderPath:Playground FolderGuid:9FE5E8B349AF71F05F2688921F3F2AC5
 |   |   |- [+] [  5]
 |   |   |   |- Guid:7745151C40D50341DEDA64A57645790F BaseClass: NativeClass:/Script/Engine.StaticMeshActor Name:StaticMeshActor_UAID_2CF05D3B741E8DB401_1885194056 Label:Cube2 SpatiallyLoaded:1 Bounds:IsValid=true, Min=(X=2380.000 Y=700.000 Z=0.000), Max=(X=2480.000 Y=2900.000 Z=100.000) RuntimeGrid:None EditorOnly:0 RuntimeOnly:0 HLODRelevant:1 FolderPath:Playground FolderGuid:9FE5E8B349AF71F05F2688921F3F2AC5
 |   |   |- [+] [  6]
 |   |   |   |- Guid:1FDD73EE4C00B6D04D26938B691CA3F0 BaseClass:/Game/TopDown/AutocookBaseLogic/ItemOperatorStation.ItemOperatorStation_C NativeClass:/Script/Engine.Actor Name:ItemOperatorStation_C_UAID_2CF05D3B741EB0B701_1135430384 Label:ItemOperatorStationApple SpatiallyLoaded:1 Bounds:IsValid=true, Min=(X=410.000 Y=2190.000 Z=60.000), Max=(X=510.000 Y=2290.000 Z=60.000) RuntimeGrid:None EditorOnly:0 RuntimeOnly:0 HLODRelevant:0 FolderPath:ItemOperatorStation FolderGuid:45BCE96442C3ECCAC03ED789C98D4C9B
 |   |   |- [+] [  7]
 |   |   |   |- Guid:2169CB5C470E0E674279BA96829753DD BaseClass: NativeClass:/Script/Engine.StaticMeshActor Name:StaticMeshActor_17 Label:SM_Cube SpatiallyLoaded:1 Bounds:IsValid=true, Min=(X=0.000 Y=0.000 Z=-50.000), Max=(X=3000.000 Y=3500.000 Z=50.000) RuntimeGrid:None EditorOnly:0 RuntimeOnly:0 HLODRelevant:1 FolderPath:Playground FolderGuid:9FE5E8B349AF71F05F2688921F3F2AC5
 |   |   |- [+] [  8]
 |   |   |   |- Guid:46ED9CEC43867A828173909D11A408E6 BaseClass:/Game/TopDown/AutocookBaseLogic/ItemOperatorStation.ItemOperatorStation_C NativeClass:/Script/Engine.Actor Name:ItemOperatorStation_C_UAID_2CF05D3B741EAFB701_2143197207 Label:ItemOperatorStationCucumb SpatiallyLoaded:1 Bounds:IsValid=true, Min=(X=420.000 Y=2560.000 Z=60.000), Max=(X=520.000 Y=2660.000 Z=60.000) RuntimeGrid:None EditorOnly:0 RuntimeOnly:0 HLODRelevant:0 FolderPath:ItemOperatorStation FolderGuid:45BCE96442C3ECCAC03ED789C98D4C9B
 |   |   |- [+] [  9]
 |   |   |   |- Guid:399426454DA0259D2A7BC4B6C3195459 BaseClass: NativeClass:/Script/Engine.StaticMeshActor Name:StaticMeshActor_UAID_2CF05D3B741E99B401_1546634178 Label:CardChoppingBoard SpatiallyLoaded:1 Bounds:IsValid=true, Min=(X=290.000 Y=910.000 Z=140.000), Max=(X=390.000 Y=1010.000 Z=140.000) RuntimeGrid:None EditorOnly:0 RuntimeOnly:0 HLODRelevant:1 FolderPath:ItemCards FolderGuid:88C4BAD84E7ED7FA5CDC05BC7E201FAA
 |   |   |- [+] [ 10]
 |   |   |   |- Guid:AF95419842580A2475AD7486F56EE1E4 BaseClass:/Game/TopDown/Test/BP_Teacher.BP_Teacher_C NativeClass:/Script/Engine.Actor Name:BP_Teacher_C_UAID_2CF05D3B741ECAB401_1738999791 Label:BP_Teacher SpatiallyLoaded:1 Bounds:IsValid=true, Min=(X=510.000 Y=1590.000 Z=320.000), Max=(X=510.000 Y=1590.000 Z=320.000) RuntimeGrid:None EditorOnly:0 RuntimeOnly:0 HLODRelevant:0 FolderPath:Test FolderGuid:EC11BE674E5A868E3BCB98B2CC979488
 |   |   |- [+] [ 11]
 |   |   |   |- Guid:E80F33394DBA91E66D8E1EB4E2D982C1 BaseClass: NativeClass:/Script/Engine.StaticMeshActor Name:StaticMeshActor_UAID_2CF05D3B741E98B401_1952033999 Label:CardApple SpatiallyLoaded:1 Bounds:IsValid=true, Min=(X=290.000 Y=2200.000 Z=120.000), Max=(X=390.000 Y=2300.000 Z=120.000) RuntimeGrid:None EditorOnly:0 RuntimeOnly:0 HLODRelevant:1 FolderPath:ItemCards FolderGuid:88C4BAD84E7ED7FA5CDC05BC7E201FAA
 |   |   |- [+] [ 12]
 |   |   |   |- Guid:1FEC8FAC495CEF0CE32492ADCBB96BAE BaseClass: NativeClass:/Script/AIModule.NavLinkProxy Name:NavLinkProxy_3 Label:NavLinkProxy3 SpatiallyLoaded:1 Bounds:IsValid=true, Min=(X=2240.000 Y=1030.000 Z=90.000), Max=(X=2240.000 Y=1030.000 Z=90.000) RuntimeGrid:None EditorOnly:0 RuntimeOnly:0 HLODRelevant:0 FolderPath:Navigation FolderGuid:AE45D61F453CC144CF8289862C276E89
 |   |   |- [+] [ 13]
 |   |   |   |- Guid:AAB084114CBFE4E73DB978AFC29606CF BaseClass: NativeClass:/Script/Engine.StaticMeshActor Name:StaticMeshActor_UAID_2CF05D3B741E8EB401_2103935237 Label:CardBanana SpatiallyLoaded:1 Bounds:IsValid=true, Min=(X=300.000 Y=1780.000 Z=110.000), Max=(X=400.000 Y=1880.000 Z=110.000) RuntimeGrid:None EditorOnly:0 RuntimeOnly:0 HLODRelevant:1 FolderPath:ItemCards FolderGuid:88C4BAD84E7ED7FA5CDC05BC7E201FAA
 |   |   |- [+] [ 14]
 |   |   |   |- Guid:6252C7D64ACF162A73EE65B11FE214D1 BaseClass: NativeClass:/Script/Engine.SkyAtmosphere Name:SkyAtmosphere_1 Label:SkyAtmosphere SpatiallyLoaded:0 Bounds:IsValid=true, Min=(X=0.000 Y=0.000 Z=1020.000), Max=(X=0.000 Y=0.000 Z=1020.000) RuntimeGrid:None EditorOnly:0 RuntimeOnly:0 HLODRelevant:0 FolderPath:Lighting FolderGuid:4C9334684BA61B42C769F799D2576455
 |   |   |- [+] [ 15]
 |   |   |   |- Guid:D24D61B944EF71BE7BC469B7EB239299 BaseClass: NativeClass:/Script/Engine.ExponentialHeightFog Name:ExponentialHeightFog_1 Label:ExponentialHeightFog SpatiallyLoaded:0 Bounds:IsValid=true, Min=(X=-5600.000 Y=-50.000 Z=-6850.000), Max=(X=-5600.000 Y=-50.000 Z=-6850.000) RuntimeGrid:None EditorOnly:0 RuntimeOnly:0 HLODRelevant:0 FolderPath:Lighting FolderGuid:4C9334684BA61B42C769F799D2576455
 |   |   |- [+] [ 16]
 |   |   |   |- Guid:77F893B3468595EE782136AD620D7EF4 BaseClass: NativeClass:/Script/Engine.VolumetricCloud Name:VolumetricCloud_0 Label:VolumetricCloud SpatiallyLoaded:0 Bounds:IsValid=true, Min=(X=0.000 Y=0.000 Z=820.000), Max=(X=0.000 Y=0.000 Z=820.000) RuntimeGrid:None EditorOnly:0 RuntimeOnly:0 HLODRelevant:0 FolderPath:Lighting FolderGuid:4C9334684BA61B42C769F799D2576455
 |   |   |- [+] [ 17]
 |   |   |   |- Guid:F33CC5014C49925B3A9D52A063AF483F BaseClass: NativeClass:/Script/Engine.PlayerStart Name:PlayerStart_0 Label:PlayerStart SpatiallyLoaded:0 Bounds:IsValid=true, Min=(X=960.000 Y=1770.000 Z=0.013), Max=(X=1040.000 Y=1850.000 Z=184.013) RuntimeGrid:None EditorOnly:0 RuntimeOnly:0 HLODRelevant:0
 |   |   |- [+] [ 18]
 |   |   |   |- Guid:147C8D134B12D635012D5F8C57D2C96F BaseClass: NativeClass:/Script/Engine.PostProcessVolume Name:PostProcessVolume_1 Label:PostProcessVolume SpatiallyLoaded:0 Bounds:IsValid=true, Min=(X=0.000 Y=0.000 Z=400.000), Max=(X=200.000 Y=200.000 Z=600.000) RuntimeGrid:None EditorOnly:0 RuntimeOnly:0 HLODRelevant:0 FolderPath:Lighting FolderGuid:4C9334684BA61B42C769F799D2576455
 |   |   |- [+] [ 19]
 |   |   |   |- Guid:C8B2FDEB423FDC0AF86D549D090D7BE0 BaseClass: NativeClass:/Script/Engine.StaticMeshActor Name:StaticMeshActor_UAID_2CF05D3B741E8DB401_1618225055 Label:Cube SpatiallyLoaded:1 Bounds:IsValid=true, Min=(X=300.000 Y=700.000 Z=0.000), Max=(X=400.000 Y=2900.000 Z=100.000) RuntimeGrid:None EditorOnly:0 RuntimeOnly:0 HLODRelevant:1 FolderPath:Playground FolderGuid:9FE5E8B349AF71F05F2688921F3F2AC5
 |   |   |- [+] [ 20]
 |   |   |   |- Guid:80D69EB6461DE36BE691748468B42200 BaseClass:/Game/TopDown/AutocookBaseLogic/ItemOperatorStation.ItemOperatorStation_C NativeClass:/Script/Engine.Actor Name:ItemOperatorStation_C_UAID_2CF05D3B741EB0B701_1321914387 Label:ItemOperatorStationChoppingBoard SpatiallyLoaded:1 Bounds:IsValid=true, Min=(X=410.000 Y=910.000 Z=60.000), Max=(X=510.000 Y=1010.000 Z=60.000) RuntimeGrid:None EditorOnly:0 RuntimeOnly:0 HLODRelevant:0 FolderPath:ItemOperatorStation FolderGuid:45BCE96442C3ECCAC03ED789C98D4C9B
 |   |   |- [+] [ 21]
 |   |   |   |- Guid:88FD62234FE06AEE6BED5282950D300A BaseClass: NativeClass:/Script/Engine.StaticMeshActor Name:StaticMeshActor_UAID_2CF05D3B741E99B401_1731190179 Label:CardSaladDresssing SpatiallyLoaded:1 Bounds:IsValid=true, Min=(X=540.000 Y=620.000 Z=140.000), Max=(X=640.000 Y=720.000 Z=140.000) RuntimeGrid:None EditorOnly:0 RuntimeOnly:0 HLODRelevant:1 FolderPath:ItemCards FolderGuid:88C4BAD84E7ED7FA5CDC05BC7E201FAA
 |   |   |- [+] [ 22]
 |   |   |   |- Guid:8731F4F84CDF0D0834BB208646346EB6 BaseClass:/Game/TopDown/AutocookBaseLogic/TestOrder.TestOrder_C NativeClass:/Script/Engine.Actor Name:TestOrder_C_UAID_2CF05D3B741EBEB501_1458677735 Label:TestOrder SpatiallyLoaded:1 Bounds:IsValid=true, Min=(X=500.000 Y=2040.000 Z=360.000), Max=(X=500.000 Y=2040.000 Z=360.000) RuntimeGrid:None EditorOnly:0 RuntimeOnly:0 HLODRelevant:0 FolderPath:Test FolderGuid:EC11BE674E5A868E3BCB98B2CC979488
 |   |   |- [+] [ 23]
 |   |   |   |- Guid:8AEC5DFE40EA2BEF14A3DC8291417A47 BaseClass:/Game/TopDown/AutocookBaseLogic/ItemOperatorStation.ItemOperatorStation_C NativeClass:/Script/Engine.Actor Name:ItemOperatorStation_C_UAID_2CF05D3B741EB0B701_1346003388 Label:ItemOperatorStationSalad SpatiallyLoaded:1 Bounds:IsValid=true, Min=(X=560.000 Y=720.000 Z=60.000), Max=(X=660.000 Y=820.000 Z=60.000) RuntimeGrid:None EditorOnly:0 RuntimeOnly:0 HLODRelevant:0 FolderPath:ItemOperatorStation FolderGuid:45BCE96442C3ECCAC03ED789C98D4C9B
 |   |   |- [+] [ 24]
 |   |   |   |- Guid:AECEEEE741E6DE68F6843FA49564A956 BaseClass: NativeClass:/Script/Engine.DirectionalLight Name:DirectionalLight_1 Label:DirectionalLight SpatiallyLoaded:0 Bounds:IsValid=true, Min=(X=-1048576.000 Y=-1048576.000 Z=-1048576.000), Max=(X=1048576.000 Y=1048576.000 Z=1048576.000) RuntimeGrid:None EditorOnly:0 RuntimeOnly:0 HLODRelevant:0 FolderPath:Lighting FolderGuid:4C9334684BA61B42C769F799D2576455
 |   |   |- [+] [ 25]
 |   |   |   |- Guid:2DF0D95440BE0EDA81652F860DC7268E BaseClass: NativeClass:/Script/Engine.WorldDataLayers Name:WorldDataLayers Label:WorldDataLayers SpatiallyLoaded:0 Bounds:IsValid=true, Min=(X=0.000 Y=0.000 Z=0.000), Max=(X=0.000 Y=0.000 Z=0.000) RuntimeGrid:None EditorOnly:0 RuntimeOnly:0 HLODRelevant:0
 |   |   |- [+] [ 26]
 |   |   |   |- Guid:B376AF284C462FB0D48CCEA096E5732C BaseClass: NativeClass:/Script/Engine.StaticMeshActor Name:StaticMeshActor_UAID_2CF05D3B741E8EB401_1580388235 Label:Cube5 SpatiallyLoaded:1 Bounds:IsValid=true, Min=(X=387.500 Y=1340.000 Z=0.000), Max=(X=1012.500 Y=1440.000 Z=100.000) RuntimeGrid:None EditorOnly:0 RuntimeOnly:0 HLODRelevant:1 FolderPath:Playground FolderGuid:9FE5E8B349AF71F05F2688921F3F2AC5
 |   |   |- [+] [ 27]
 |   |   |   |- Guid:66BCBF874D2A22ADC6523B95EE812CA3 BaseClass: NativeClass:/Script/Engine.StaticMeshActor Name:StaticMeshActor_UAID_A4AE111137DC5CFB00_1660657071 Label:SM_SkySphere SpatiallyLoaded:0 Bounds:IsValid=true, Min=(X=-1638400.000 Y=-1638400.000 Z=-1638400.000), Max=(X=1638400.000 Y=1638400.000 Z=1638400.000) RuntimeGrid:None EditorOnly:0 RuntimeOnly:0 HLODRelevant:1 FolderPath:Lighting FolderGuid:4C9334684BA61B42C769F799D2576455
 |   |   |- [+] [ 28]
 |   |   |   |- Guid:3D6CE1BA4A1CA78758C41F9C9B2EBB35 BaseClass: NativeClass:/Script/Engine.StaticMeshActor Name:StaticMeshActor_UAID_2CF05D3B741E99B401_1438423177 Label:CardPlate SpatiallyLoaded:1 Bounds:IsValid=true, Min=(X=280.000 Y=1180.000 Z=150.000), Max=(X=380.000 Y=1280.000 Z=150.000) RuntimeGrid:None EditorOnly:0 RuntimeOnly:0 HLODRelevant:1 FolderPath:ItemCards FolderGuid:88C4BAD84E7ED7FA5CDC05BC7E201FAA
 |   |   |- [+] [ 29]
 |   |   |   |- Guid:19F77B254E508844CD69E1A186C4B969 BaseClass:/Game/TopDown/AutocookBaseLogic/PlayerBag.PlayerBag_C NativeClass:/Script/Engine.Actor Name:PlayerBag_C_UAID_2CF05D3B741EDFB901_1277758767 Label:PlayerBag SpatiallyLoaded:1 Bounds:IsValid=true, Min=(X=650.000 Y=1920.000 Z=480.000), Max=(X=650.000 Y=1920.000 Z=480.000) RuntimeGrid:None EditorOnly:0 RuntimeOnly:0 HLODRelevant:0 FolderPath:BasicLogic FolderGuid:2E6430964C8AC2D999E011831BDAD4B3
 |   |   |- [+] [ 30]
 |   |   |   |- Guid:4E4789594AE1407CCAF817BCA662672C BaseClass:/Game/TopDown/AutocookBaseLogic/ItemOperatorStation.ItemOperatorStation_C NativeClass:/Script/Engine.Actor Name:ItemOperatorStation_C_UAID_2CF05D3B741EB0B701_1221272385 Label:ItemOperatorStationBanana SpatiallyLoaded:1 Bounds:IsValid=true, Min=(X=420.000 Y=1780.000 Z=60.000), Max=(X=520.000 Y=1880.000 Z=60.000) RuntimeGrid:None EditorOnly:0 RuntimeOnly:0 HLODRelevant:0 FolderPath:ItemOperatorStation FolderGuid:45BCE96442C3ECCAC03ED789C98D4C9B
 |   |   |- [+] [ 31]
 |   |   |   |- Guid:6697E0414DFD1EAEC81B11AAED0B918B BaseClass:/Game/TopDown/AutocookBaseLogic/OrderManager.OrderManager_C NativeClass:/Script/Engine.Actor Name:OrderManager_C_UAID_2CF05D3B741EDFB901_1301145768 Label:OrderManager SpatiallyLoaded:1 Bounds:IsValid=true, Min=(X=930.000 Y=2100.000 Z=210.000), Max=(X=930.000 Y=2100.000 Z=210.000) RuntimeGrid:None EditorOnly:0 RuntimeOnly:0 HLODRelevant:0 FolderPath:BasicLogic FolderGuid:2E6430964C8AC2D999E011831BDAD4B3
 |   |   |- [+] [ 32]
 |   |   |   |- Guid:A05C0451402C0B7E56BE2CB8CCB10135 BaseClass: NativeClass:/Script/Engine.StaticMeshActor Name:StaticMeshActor_UAID_2CF05D3B741E8DB401_2143198058 Label:Cube4 SpatiallyLoaded:1 Bounds:IsValid=true, Min=(X=290.000 Y=2890.000 Z=0.000), Max=(X=2490.000 Y=2990.000 Z=100.000) RuntimeGrid:None EditorOnly:0 RuntimeOnly:0 HLODRelevant:1 FolderPath:Playground FolderGuid:9FE5E8B349AF71F05F2688921F3F2AC5
 |   |   |- [+] [ 33]
 |   |   |   |- Guid:1742DF43475F097453197AA79C7473D9 BaseClass: NativeClass:/Script/Engine.SkyLight Name:SkyLight_1 Label:SkyLight SpatiallyLoaded:0 Bounds:IsValid=true, Min=(X=0.000 Y=0.000 Z=690.000), Max=(X=0.000 Y=0.000 Z=690.000) RuntimeGrid:None EditorOnly:0 RuntimeOnly:0 HLODRelevant:0 FolderPath:Lighting FolderGuid:4C9334684BA61B42C769F799D2576455
 |- ContainerInstances:
 |- [+] MainContainer:
 |   |-        ID: 0x0000000000000000
 |   |-    Bounds: IsValid=false, Min=(X=0.000 Y=0.000 Z=0.000), Max=(X=0.000 Y=0.000 Z=0.000)
 |   |- Transform: 0.000000,0.000000,0.000000|0.000000,0.000000,-0.000000|1.000000,1.000000,1.000000
 |   |- Container: /Game/TopDown/Maps/TopDownMap
----------------------------------------------------------------------------------------------------------------
TopDownMap - Persistent Level
----------------------------------------------------------------------------------------------------------------
Always loaded Actor Count: 50 

----------------------------------------------------------------------------------------------------------------
TopDownMap - Runtime Spatial Hash - Streaming Grid - MainGrid
----------------------------------------------------------------------------------------------------------------
            Origin: X=0.000 Y=0.000 Z=0.000
         Cell Size: 12800
      World Bounds: IsValid=false, Min=(X=0.000 Y=0.000 Z=0.000), Max=(X=0.000 Y=0.000 Z=0.000)
     Loading Range: 25600.00
Block Slow Loading: No
 ClientOnlyVisible: No

[+] Grid Levels: 1
 |- Level  0: Cell Count    0 | Cell Size   12800 | Actor Count    0 (0.0%)

[+] Content of Grid Level 0

